module gitlab.com/PatrickDomnick/gin-vals

go 1.22.0

toolchain go1.24.0

require (
	github.com/gin-gonic/gin v1.10.0
	github.com/helmfile/vals v0.37.7
)

require (
	cel.dev/expr v0.16.1 // indirect
	cloud.google.com/go v0.116.0 // indirect
	cloud.google.com/go/auth v0.9.8 // indirect
	cloud.google.com/go/auth/oauth2adapt v0.2.4 // indirect
	cloud.google.com/go/compute/metadata v0.5.2 // indirect
	cloud.google.com/go/iam v1.2.1 // indirect
	cloud.google.com/go/kms v1.20.0 // indirect
	cloud.google.com/go/longrunning v0.6.1 // indirect
	cloud.google.com/go/monitoring v1.21.1 // indirect
	cloud.google.com/go/secretmanager v1.14.1 // indirect
	cloud.google.com/go/storage v1.45.0 // indirect
	filippo.io/age v1.2.0 // indirect
	github.com/1Password/connect-sdk-go v1.5.3 // indirect
	github.com/1password/onepassword-sdk-go v0.1.3 // indirect
	github.com/AlecAivazis/survey/v2 v2.3.7 // indirect
	github.com/Azure/azure-sdk-for-go/sdk/azcore v1.16.0 // indirect
	github.com/Azure/azure-sdk-for-go/sdk/azidentity v1.8.0 // indirect
	github.com/Azure/azure-sdk-for-go/sdk/internal v1.10.0 // indirect
	github.com/Azure/azure-sdk-for-go/sdk/resourcemanager/storage/armstorage v1.5.0 // indirect
	github.com/Azure/azure-sdk-for-go/sdk/security/keyvault/azkeys v1.1.0 // indirect
	github.com/Azure/azure-sdk-for-go/sdk/security/keyvault/azsecrets v1.1.0 // indirect
	github.com/Azure/azure-sdk-for-go/sdk/security/keyvault/internal v1.0.1 // indirect
	github.com/Azure/azure-sdk-for-go/sdk/storage/azblob v1.2.1 // indirect
	github.com/Azure/go-autorest v14.2.0+incompatible // indirect
	github.com/Azure/go-autorest/autorest/adal v0.9.23 // indirect
	github.com/Azure/go-autorest/autorest/azure/cli v0.4.6 // indirect
	github.com/Azure/go-autorest/autorest/date v0.3.0 // indirect
	github.com/Azure/go-autorest/logger v0.2.1 // indirect
	github.com/Azure/go-autorest/tracing v0.6.0 // indirect
	github.com/AzureAD/microsoft-authentication-library-for-go v1.2.2 // indirect
	github.com/DopplerHQ/cli v0.5.11-0.20230908185655-7aef4713e1a4 // indirect
	github.com/GoogleCloudPlatform/opentelemetry-operations-go/detectors/gcp v1.24.1 // indirect
	github.com/GoogleCloudPlatform/opentelemetry-operations-go/exporter/metric v0.48.1 // indirect
	github.com/GoogleCloudPlatform/opentelemetry-operations-go/internal/resourcemapping v0.48.1 // indirect
	github.com/ProtonMail/go-crypto v1.1.0-beta.0-proton // indirect
	github.com/a8m/envsubst v1.4.2 // indirect
	github.com/alessio/shellescape v1.4.2 // indirect
	github.com/antchfx/jsonquery v1.3.6 // indirect
	github.com/antchfx/xpath v1.3.2 // indirect
	github.com/asaskevich/govalidator v0.0.0-20230301143203-a9d515a09cc2 // indirect
	github.com/atotto/clipboard v0.1.4 // indirect
	github.com/aws/aws-sdk-go v1.55.5 // indirect
	github.com/aws/aws-sdk-go-v2 v1.31.0 // indirect
	github.com/aws/aws-sdk-go-v2/aws/protocol/eventstream v1.6.5 // indirect
	github.com/aws/aws-sdk-go-v2/config v1.27.39 // indirect
	github.com/aws/aws-sdk-go-v2/credentials v1.17.37 // indirect
	github.com/aws/aws-sdk-go-v2/feature/ec2/imds v1.16.14 // indirect
	github.com/aws/aws-sdk-go-v2/feature/s3/manager v1.17.25 // indirect
	github.com/aws/aws-sdk-go-v2/internal/configsources v1.3.18 // indirect
	github.com/aws/aws-sdk-go-v2/internal/endpoints/v2 v2.6.18 // indirect
	github.com/aws/aws-sdk-go-v2/internal/ini v1.8.1 // indirect
	github.com/aws/aws-sdk-go-v2/internal/v4a v1.3.18 // indirect
	github.com/aws/aws-sdk-go-v2/service/internal/accept-encoding v1.11.5 // indirect
	github.com/aws/aws-sdk-go-v2/service/internal/checksum v1.3.20 // indirect
	github.com/aws/aws-sdk-go-v2/service/internal/presigned-url v1.11.20 // indirect
	github.com/aws/aws-sdk-go-v2/service/internal/s3shared v1.17.18 // indirect
	github.com/aws/aws-sdk-go-v2/service/kms v1.36.3 // indirect
	github.com/aws/aws-sdk-go-v2/service/s3 v1.63.3 // indirect
	github.com/aws/aws-sdk-go-v2/service/sso v1.23.3 // indirect
	github.com/aws/aws-sdk-go-v2/service/ssooidc v1.27.3 // indirect
	github.com/aws/aws-sdk-go-v2/service/sts v1.31.3 // indirect
	github.com/aws/smithy-go v1.21.0 // indirect
	github.com/bgentry/go-netrc v0.0.0-20140422174119-9fd32a8b3d3d // indirect
	github.com/blang/semver v3.5.1+incompatible // indirect
	github.com/bytedance/sonic v1.11.6 // indirect
	github.com/bytedance/sonic/loader v0.1.1 // indirect
	github.com/cenkalti/backoff/v4 v4.3.0 // indirect
	github.com/census-instrumentation/opencensus-proto v0.4.1 // indirect
	github.com/cespare/xxhash/v2 v2.3.0 // indirect
	github.com/cloudflare/circl v1.4.0 // indirect
	github.com/cloudwego/base64x v0.1.4 // indirect
	github.com/cloudwego/iasm v0.2.0 // indirect
	github.com/cncf/xds/go v0.0.0-20240905190251-b4127c9b8d78 // indirect
	github.com/cpuguy83/go-md2man/v2 v2.0.5 // indirect
	github.com/cyberark/conjur-api-go v0.12.4 // indirect
	github.com/danieljoos/wincred v1.2.1 // indirect
	github.com/davecgh/go-spew v1.1.2-0.20180830191138-d8f796af33cc // indirect
	github.com/dimchansky/utfbom v1.1.1 // indirect
	github.com/emicklei/go-restful/v3 v3.11.2 // indirect
	github.com/envoyproxy/go-control-plane v0.13.0 // indirect
	github.com/envoyproxy/protoc-gen-validate v1.1.0 // indirect
	github.com/extism/go-sdk v1.3.1 // indirect
	github.com/fatih/color v1.17.0 // indirect
	github.com/felixge/httpsnoop v1.0.4 // indirect
	github.com/fujiwara/tfstate-lookup v1.4.2 // indirect
	github.com/fxamacker/cbor/v2 v2.7.0 // indirect
	github.com/gabriel-vasile/mimetype v1.4.3 // indirect
	github.com/getsops/gopgagent v0.0.0-20240527072608-0c14999532fe // indirect
	github.com/getsops/sops/v3 v3.9.1 // indirect
	github.com/gin-contrib/sse v0.1.0 // indirect
	github.com/go-jose/go-jose/v4 v4.0.4 // indirect
	github.com/go-logr/logr v1.4.2 // indirect
	github.com/go-logr/stdr v1.2.2 // indirect
	github.com/go-openapi/analysis v0.23.0 // indirect
	github.com/go-openapi/errors v0.22.0 // indirect
	github.com/go-openapi/jsonpointer v0.21.0 // indirect
	github.com/go-openapi/jsonreference v0.21.0 // indirect
	github.com/go-openapi/loads v0.22.0 // indirect
	github.com/go-openapi/runtime v0.28.0 // indirect
	github.com/go-openapi/spec v0.21.0 // indirect
	github.com/go-openapi/strfmt v0.23.0 // indirect
	github.com/go-openapi/swag v0.23.0 // indirect
	github.com/go-openapi/validate v0.24.0 // indirect
	github.com/go-playground/locales v0.14.1 // indirect
	github.com/go-playground/universal-translator v0.18.1 // indirect
	github.com/go-playground/validator/v10 v10.20.0 // indirect
	github.com/gobwas/glob v0.2.3 // indirect
	github.com/goccy/go-json v0.10.2 // indirect
	github.com/godbus/dbus/v5 v5.1.0 // indirect
	github.com/gogo/protobuf v1.3.2 // indirect
	github.com/golang-jwt/jwt/v4 v4.5.0 // indirect
	github.com/golang-jwt/jwt/v5 v5.2.1 // indirect
	github.com/golang/groupcache v0.0.0-20210331224755-41bb18bfe9da // indirect
	github.com/golang/protobuf v1.5.4 // indirect
	github.com/google/gnostic-models v0.6.8 // indirect
	github.com/google/go-cmp v0.6.0 // indirect
	github.com/google/go-jsonnet v0.20.0 // indirect
	github.com/google/go-querystring v1.1.0 // indirect
	github.com/google/gofuzz v1.2.0 // indirect
	github.com/google/s2a-go v0.1.8 // indirect
	github.com/google/uuid v1.6.0 // indirect
	github.com/googleapis/enterprise-certificate-proxy v0.3.4 // indirect
	github.com/googleapis/gax-go/v2 v2.13.0 // indirect
	github.com/goware/prefixer v0.0.0-20160118172347-395022866408 // indirect
	github.com/hashicorp/errwrap v1.1.0 // indirect
	github.com/hashicorp/go-cleanhttp v0.5.2 // indirect
	github.com/hashicorp/go-multierror v1.1.1 // indirect
	github.com/hashicorp/go-retryablehttp v0.7.7 // indirect
	github.com/hashicorp/go-rootcerts v1.0.2 // indirect
	github.com/hashicorp/go-secure-stdlib/parseutil v0.1.8 // indirect
	github.com/hashicorp/go-secure-stdlib/strutil v0.1.2 // indirect
	github.com/hashicorp/go-slug v0.15.0 // indirect
	github.com/hashicorp/go-sockaddr v1.0.7 // indirect
	github.com/hashicorp/go-tfe v1.56.0 // indirect
	github.com/hashicorp/go-version v1.6.0 // indirect
	github.com/hashicorp/golang-lru v1.0.2 // indirect
	github.com/hashicorp/hcl v1.0.0 // indirect
	github.com/hashicorp/hcp-sdk-go v0.117.0 // indirect
	github.com/hashicorp/jsonapi v1.3.1 // indirect
	github.com/hashicorp/vault/api v1.15.0 // indirect
	github.com/imdario/mergo v0.3.16 // indirect
	github.com/inconshreveable/mousetrap v1.1.0 // indirect
	github.com/itchyny/gojq v0.12.16 // indirect
	github.com/itchyny/timefmt-go v0.1.6 // indirect
	github.com/jmespath/go-jmespath v0.4.0 // indirect
	github.com/josharian/intern v1.0.0 // indirect
	github.com/json-iterator/go v1.1.12 // indirect
	github.com/kballard/go-shellquote v0.0.0-20180428030007-95032a82bc51 // indirect
	github.com/klauspost/cpuid/v2 v2.2.7 // indirect
	github.com/kylelemons/godebug v1.1.0 // indirect
	github.com/leodido/go-urn v1.4.0 // indirect
	github.com/lib/pq v1.10.9 // indirect
	github.com/mailru/easyjson v0.7.7 // indirect
	github.com/mattn/go-colorable v0.1.13 // indirect
	github.com/mattn/go-isatty v0.0.20 // indirect
	github.com/mgutz/ansi v0.0.0-20200706080929-d51e80ef957d // indirect
	github.com/mitchellh/colorstring v0.0.0-20190213212951-d06e56a500db // indirect
	github.com/mitchellh/go-homedir v1.1.0 // indirect
	github.com/mitchellh/go-wordwrap v1.0.1 // indirect
	github.com/mitchellh/mapstructure v1.5.0 // indirect
	github.com/modern-go/concurrent v0.0.0-20180306012644-bacd9c7ef1dd // indirect
	github.com/modern-go/reflect2 v1.0.2 // indirect
	github.com/munnerz/goautoneg v0.0.0-20191010083416-a7dc8b61c822 // indirect
	github.com/oklog/ulid v1.3.1 // indirect
	github.com/opentracing/opentracing-go v1.2.0 // indirect
	github.com/pelletier/go-toml/v2 v2.2.2 // indirect
	github.com/pkg/browser v0.0.0-20240102092130-5ac0b6a4141c // indirect
	github.com/pkg/errors v0.9.1 // indirect
	github.com/planetscale/vtprotobuf v0.6.1-0.20240319094008-0393e58bdf10 // indirect
	github.com/russross/blackfriday/v2 v2.1.0 // indirect
	github.com/ryanuber/go-glob v1.0.0 // indirect
	github.com/sirupsen/logrus v1.9.3 // indirect
	github.com/skratchdot/open-golang v0.0.0-20200116055534-eef842397966 // indirect
	github.com/spf13/cobra v1.8.0 // indirect
	github.com/spf13/pflag v1.0.5 // indirect
	github.com/tetratelabs/wazero v1.8.1 // indirect
	github.com/tidwall/gjson v1.18.0 // indirect
	github.com/tidwall/match v1.1.1 // indirect
	github.com/tidwall/pretty v1.2.1 // indirect
	github.com/twitchyliquid64/golang-asm v0.15.1 // indirect
	github.com/uber/jaeger-client-go v2.30.0+incompatible // indirect
	github.com/uber/jaeger-lib v2.4.1+incompatible // indirect
	github.com/ugorji/go/codec v1.2.12 // indirect
	github.com/urfave/cli v1.22.15 // indirect
	github.com/x448/float16 v0.8.4 // indirect
	github.com/xeipuuv/gojsonpointer v0.0.0-20190905194746-02993c407bfb // indirect
	github.com/zalando/go-keyring v0.2.3 // indirect
	go.mongodb.org/mongo-driver v1.14.0 // indirect
	go.opencensus.io v0.24.0 // indirect
	go.opentelemetry.io/contrib/detectors/gcp v1.29.0 // indirect
	go.opentelemetry.io/contrib/instrumentation/google.golang.org/grpc/otelgrpc v0.55.0 // indirect
	go.opentelemetry.io/contrib/instrumentation/net/http/otelhttp v0.55.0 // indirect
	go.opentelemetry.io/otel v1.30.0 // indirect
	go.opentelemetry.io/otel/metric v1.30.0 // indirect
	go.opentelemetry.io/otel/sdk v1.29.0 // indirect
	go.opentelemetry.io/otel/sdk/metric v1.29.0 // indirect
	go.opentelemetry.io/otel/trace v1.30.0 // indirect
	go.uber.org/atomic v1.11.0 // indirect
	golang.org/x/arch v0.8.0 // indirect
	golang.org/x/crypto v0.28.0 // indirect
	golang.org/x/net v0.30.0 // indirect
	golang.org/x/oauth2 v0.23.0 // indirect
	golang.org/x/sync v0.8.0 // indirect
	golang.org/x/sys v0.26.0 // indirect
	golang.org/x/term v0.25.0 // indirect
	golang.org/x/text v0.19.0 // indirect
	golang.org/x/time v0.7.0 // indirect
	google.golang.org/api v0.201.0 // indirect
	google.golang.org/genproto v0.0.0-20241007155032-5fefd90f89a9 // indirect
	google.golang.org/genproto/googleapis/api v0.0.0-20240930140551-af27646dc61f // indirect
	google.golang.org/genproto/googleapis/rpc v0.0.0-20241007155032-5fefd90f89a9 // indirect
	google.golang.org/grpc v1.67.1 // indirect
	google.golang.org/grpc/stats/opentelemetry v0.0.0-20240907200651-3ffb98b2c93a // indirect
	google.golang.org/protobuf v1.35.1 // indirect
	gopkg.in/gookit/color.v1 v1.1.6 // indirect
	gopkg.in/inf.v0 v0.9.1 // indirect
	gopkg.in/ini.v1 v1.67.0 // indirect
	gopkg.in/yaml.v2 v2.4.0 // indirect
	gopkg.in/yaml.v3 v3.0.1 // indirect
	k8s.io/api v0.31.1 // indirect
	k8s.io/apimachinery v0.31.1 // indirect
	k8s.io/client-go v0.31.1 // indirect
	k8s.io/klog/v2 v2.130.1 // indirect
	k8s.io/kube-openapi v0.0.0-20240228011516-70dd3763d340 // indirect
	k8s.io/utils v0.0.0-20240711033017-18e509b52bc8 // indirect
	sigs.k8s.io/json v0.0.0-20221116044647-bc3834ca7abd // indirect
	sigs.k8s.io/structured-merge-diff/v4 v4.4.1 // indirect
	sigs.k8s.io/yaml v1.4.0 // indirect
)
